{
   "ip":"77.236.203.188",
   "type":"ipv4",
   "continent_code":"EU",
   "continent_name":"Europe",
   "country_code":"CZ",
   "country_name":"Czechia",
   "region_code":"53",
   "region_name":"Pardubicky kraj",
   "city":"Pardubice",
   "zip":"530 02",
   "latitude":50.0128,
   "longitude":15.965,
   "location":{
      "geoname_id":3068582,
      "capital":"Prague",
      "languages":[
         {
            "code":"cs",
            "name":"Czech",
            "native":"\u010cesky"
         },
         {
            "code":"sk",
            "name":"Slovak",
            "native":"Sloven\u010dina"
         }
      ],
      "country_flag":"http:\/\/assets.ipstack.com\/flags\/cz.svg",
      "country_flag_emoji":"\ud83c\udde8\ud83c\uddff",
      "country_flag_emoji_unicode":"U+1F1E8 U+1F1FF",
      "calling_code":"420",
      "is_eu":true
   }
} 
